Lab 4
…
Part 2

Reformat the defClean data frame into a tidy format using pivot_longer. The type of statistic (Tackles_Solo, Tackles_ASST, etc) is added as a new key column named stat.

defClean_with_pivot <- pivot_longer(defClean, Tackles_Solo:Pass_PB, names_to = 'Defense_Skill', values_to = 'stat')
defClean_with_pivot

## # A tibble: 4,518 x 4
##    Name            Opponent_Opponent Defense_Skill  stat
##    <fct>           <fct>             <chr>         <dbl>
##  1 White, Lawrence UNI               Tackles_Solo      4
##  2 White, Lawrence UNI               Tackles_ASST      4
##  3 White, Lawrence UNI               Tackles_TFL       0
##  4 White, Lawrence UNI               Tackles_Sack      0
##  5 White, Lawrence UNI               Turnover_FF       0
##  6 White, Lawrence UNI               Turnover_FR       0
##  7 White, Lawrence UNI               Turnover_INT      0
##  8 White, Lawrence UNI               Pass_QBH          1
##  9 White, Lawrence UNI               Pass_PB           1
## 10 White, Lawrence Iowa              Tackles_Solo      4
## # ... with 4,508 more rows
…
The Cyclones had better defense against Notre Dame, according the the above graph showing solo tackles.

Separate the Hometown column into two columns, namely the city and the state. Print the first few rows of these two columns. (Hint: look at the sep= argument of separate)

bioClean <- separate(bioClean, Hometown, c('city', 'state'), sep=',')
bioClean

## # A tibble: 105 x 8
##    Name       Position   Weight Class     city    state Highschool Height_inches
##    <chr>      <chr>       <dbl> <chr>     <chr>   <chr> <chr>              <dbl>
##  1 Akers, La~ Wide Rece~    188 Redshirt~ Cedar ~ " Io~ Washington            72
##  2 Allen, Ch~ Tight End     245 Redshirt~ Nixa    " Mo~ Nixa                  79
##  3 Anderson,~ Wide Rece~    204 Redshirt~ Seffner " Fl~ Armwood               77
##  4 Assalley,~ Placekick~    195 Redshirt~ Naperv~ " Il~ Central               72
##  5 Azunna, A~ Defensive~    190 Redshirt~ Grand ~ " Te~ Lake Ridge            72
##  6 Bailey, C~ Defensive~    235 Redshirt~ Clarks~ " Mi~ Clarksdale            75
##  7 Bailey, J~ Defensive~    255 Redshirt~ Jackso~ " Fl~ Raines                74
##  8 Bailey, J~ Defensive~    285 Redshirt~ Jackso~ " Fl~ Raines                74
##  9 Bankston,~ Defensive~    300 Junior    Woodst~ " Ga~ Woodstock             72
## 10 Bouman, A~ Quarterba~    215 Freshman  Buffalo " Mi~ Buffalo               78
## # ... with 95 more rows
…
